{
	"questions": [
			{
				"question_text": "Где дети ищут подарки утром 1 января?",
				"question_correct_answer": "под елкой",
				"var_one": "под елкой",
				"var_two": "под палкой",
				"var_three": "под скалкой",
				"var_four": "под мухой",
				"difficulty_level": 1

			},
			{
				"question_text": "Что из перечисленного пирог?",
				"question_correct_answer": "кулебяка",
				"var_one": "закаляка",
				"var_two": "забияка",
				"var_three": "кусака",
				"var_four": "кулебяка",
				"difficulty_level": 2

			},
			{
				"question_text": "Провожают, как известно, по уму, а как встречают?",
				"question_correct_answer": "по одёжке",
				"var_one": "по одёжке",
				"var_two": "по сберкнижке",
				"var_three": "по прописке",
				"var_four": "по рекомендации",
				"difficulty_level": 3

			},
			{
				"question_text": "Как называют мелководный бассейн, предназначенный для детей?",
				"question_correct_answer": "лягушатник",
				"var_one": "утятник",
				"var_two": "лягушатник",
				"var_three": "селёдочник",
				"var_four": "тюленник",
				"difficulty_level": 4

			},
			{
				"question_text": "Что, по словам кота Бегемота, он делал, когда его пришли арестовывать?",
				"question_correct_answer": "починял примус",
				"var_one": "чистил обувь",
				"var_two": "варил кашу",
				"var_three": "играл в шахматы",
				"var_four": "починял примус",
				"difficulty_level": 5

			},	
			{
				"question_text": "Бочонок с каким числом в русском лото принято называть «топориками»?",
				"question_correct_answer": "77",
				"var_one": "11",
				"var_two": "69",
				"var_three": "77",
				"var_four": "88",
				"difficulty_level": 6
			},									
			{
				"question_text": "Что из перечисленного название концертного зала, а не стадиона?",
				"question_correct_answer": "«Альберт-холл»",
				"var_one": "«Камп Ноу»",
				"var_two": "«Альберт-холл»",
				"var_three": "«Сан-Сиро»",
				"var_four": "«Энфилд»",
				"difficulty_level": 7
			},		
			{
				"question_text": "В каком фильме Бен Аффлек был не только исполнителем главной роли, но и режиссёром?",
				"question_correct_answer": "«Операция «Арго»",
				"var_one": "«Операция «Трест»»",
				"var_two": "«Операция «Святой Януарий»»",
				"var_three": "«Операция «Ы»»",
				"var_four": "«Операция «Арго»",
				"difficulty_level": 8
			},
			{
				"question_text": "Как не называется ни одна из глав романа Лермонтова «Герой нашего времени»?",
				"question_correct_answer": "«Княгиня Лиговская»",
				"var_one": "«Максим Максимыч»",
				"var_two": "«Княжна Мэри»",
				"var_three": "«Княгиня Лиговская»",
				"var_four": "«Бэла»",
				"difficulty_level": 9
			},		
			{
				"question_text": "Что норвежцы дарят на Новый год в качестве символа тепла и счастья?",
				"question_correct_answer": "спички",
				"var_one": "пледы",
				"var_two": "дрова",
				"var_three": "свечи",
				"var_four": "спички",
				"difficulty_level": 10
			},		
			{
				"question_text": "Что открыл Александр Вольта в поисках «горючего воздуха»?",
				"question_correct_answer": "метан",
				"var_one": "углерод",
				"var_two": "кислород",
				"var_three": "метан",
				"var_four": "озон",
				"difficulty_level": 11
			},
			{
				"question_text": "Чего мы не знаем о статуе Венеры Милосской?",
				"question_correct_answer": "имя заказчика",
				"var_one": "год находки",
				"var_two": "были ли у нее руки",
				"var_three": "имя заказчика",
				"var_four": "точное место находки",
				"difficulty_level": 12
			},
			{
				"question_text": "Что не умеют делать ящерицы гекконы?",
				"question_correct_answer": "ловить рыбу",
				"var_one": "ловить рыбу",
				"var_two": "ходить по потолку",
				"var_three": "менять цвет",
				"var_four": "петь",
				"difficulty_level": 13
			},
			{
				"question_text": "Какой камень стал символом препятствия на пути к цели?",
				"question_correct_answer": "камень преткновения",
				"var_one": "лунный камень",
				"var_two": "камень преткновения",
				"var_three": "камень за пазухой",
				"var_four": "камень в почках",
				"difficulty_level": 1
			},
			{
				"question_text": "Какое слово не входило в лозунг Великой французской революции?",
				"question_correct_answer": "беспредел",
				"var_one": "свобода",
				"var_two": "равенство",
				"var_three": "братство",
				"var_four": "беспредел",
				"difficulty_level": 2
			},	
			{
				"question_text": "Как называется разновидность кусачек?",
				"question_correct_answer": "бокорезы",
				"var_one": "верхоломы",
				"var_two": "нижнерубы",
				"var_three": "бокорезы",
				"var_four": "прямопилы",
				"difficulty_level": 3
			},	
			{
				"question_text": "Где жили старик и его три сына в сказке «Конёк-Горбунок»?",
				"question_correct_answer": "в селе",
				"var_one": "в ауле",
				"var_two": "в кишлаке",
				"var_three": "в селе",
				"var_four": "в городе",
				"difficulty_level": 4 
			},
			{
				"question_text": "Кто конструировал вертолеты, а не только самолеты?",
				"question_correct_answer": "Николай Камов",
				"var_one": "Николай Камов",
				"var_two": "Артем Микоян",
				"var_three": "Сергей Ильюшин",
				"var_four": "Александр Яковлев",
				"difficulty_level": 5
			},				
			{
				"question_text": "Что обычно пьют горячим, а не холодным?",
				"question_correct_answer": "грог",
				"var_one": "фраппе",
				"var_two": "грог",
				"var_three": "шербет",
				"var_four": "айран",
				"difficulty_level": 6
			},				
			{
				"question_text": "Какая змея не ядовита?",
				"question_correct_answer": "жёлтобрюхий полоз",
				"var_one": "тайпан",
				"var_two": "жёлтобрюхий полоз",
				"var_three": "чёрная мамба",
				"var_four": "песчаная эфа",
				"difficulty_level": 7
			},
			{
				"question_text": "В каком городе происходит действие пушкинского «Каменного гостя»?",
				"question_correct_answer": "Мадрид",
				"var_one": "Севилья",
				"var_two": "Толедо",
				"var_three": "Мадрид",
				"var_four": "Валенсия",
				"difficulty_level": 8
			},				
			{
				"question_text": "От какого слова происходит музыкальное направление «инди»?",
				"question_correct_answer": "независимость",
				"var_one": "индиго",
				"var_two": "независимость",
				"var_three": "индивидуальность",
				"var_four": "Индия",
				"difficulty_level": 9
			},				
			{
				"question_text": "Какой титул имел Дон Кихот?",
				"question_correct_answer": "идальго",
				"var_one": "барон",
				"var_two": "маркиз",
				"var_three": "вождь",
				"var_four": "идальго",
				"difficulty_level": 10
			},				
			{
				"question_text": "Кто автор антиутопического романа «О дивный новый мир?»",
				"question_correct_answer": "Олдос Хаксли",
				"var_one": "Олдос Хаксли",
				"var_two": "Рэй Брэдбери",
				"var_three": "Джордж Оруэлл",
				"var_four": "Сомерсет Моэм",
				"difficulty_level": 11
			},				
			{
				"question_text": "Какая картина Малевича находится в Русском музее?",
				"question_correct_answer": "«Красный Квадрат»",
				"var_one": "«Точильщик»",
				"var_two": "«Белый Квадрат»",
				"var_three": "«Черный Квадрат»",
				"var_four": "«Красный Квадрат»",
				"difficulty_level": 12
			},				
			{
				"question_text": "Какое здание не входит в тройку самых высоких зданий мира?",
				"question_correct_answer": "Башня Свободы",
				"var_one": "Tokyo Skytree",
				"var_two": "Бурдж-Халифа",
				"var_three": "Шанхайская башня",
				"var_four": "Башня Свободы",
				"difficulty_level": 13
			},				
			{
				"question_text": "«Не откладывай на завтра то, что можно...»",
				"question_correct_answer": "сделать сегодня",
				"var_one": "сделать сегодня",
				"var_two": "сделать послезавтра",
				"var_three": "сделать через месяц",
				"var_four": "никогда не делать",
				"difficulty_level": 1
			},				
			{
				"question_text": "Что говорит человек, когда замечает нечто необычное?",
				"question_correct_answer": "бросилось в глаза",
				"var_one": "попало в лоб",
				"var_two": "залетело в рот",
				"var_three": "накапало в уши",
				"var_four": "бросилось в глаза",
				"difficulty_level": 2
			},				
			{
				"question_text": "Что помогает туристу ориентироваться в незнакомом городе?",
				"question_correct_answer": "путеводитель",
				"var_one": "путепровод",
				"var_two": "путеукладчик",
				"var_three": "путеводитель",
				"var_four": "путеводная звезда",
				"difficulty_level": 3
			},				
			{
				"question_text": "Какой наряд прославил баснописец Крылов?",
				"question_correct_answer": "тришкин кафтан",
				"var_one": "тришкин кафтан",
				"var_two": "ивашкин армяк",
				"var_three": "прошкин зипун",
				"var_four": "машкин сарафан",
				"difficulty_level": 4
			},				
			{
				"question_text": "Как звали старшую сестру императора Петра Первого?",
				"question_correct_answer": "Софья",
				"var_one": "Вера",
				"var_two": "Надежда",
				"var_three": "Любовь",
				"var_four": "Софья",
				"difficulty_level": 5
			},				
			{
				"question_text": "Что не бывает морским?",
				"question_correct_answer": "рельс",
				"var_one": "рельс",
				"var_two": "огурец",
				"var_three": "гребешок",
				"var_four": "узел",
				"difficulty_level": 6
			},				
			{
				"question_text": "Кого с большим основанием можно назвать островитянами?",
				"question_correct_answer": "алеутов",
				"var_one": "алеутов",
				"var_two": "эвенков",
				"var_three": "чукчей",
				"var_four": "якутов",
				"difficulty_level": 7
			},				
			{
				"question_text": "В какой стране появилась мандолина?",
				"question_correct_answer": "Италия",
				"var_one": "Испания",
				"var_two": "Италия",
				"var_three": "Греция",
				"var_four": "Венгрия",
				"difficulty_level": 8
			},				
			{
				"question_text": "Какой врач первым в истории русской медицины применил гипсовую связку?",
				"question_correct_answer": "Пирогов",
				"var_one": "Субботин",
				"var_two": "Пирогов",
				"var_three": "Боткин",
				"var_four": "Склифосовский",
				"difficulty_level": 9
			},				
			{
				"question_text": "С чем часто охотятся на рыбу протоптера между сезонами дождей?",
				"question_correct_answer": "с лопатами",
				"var_one": "с сетями",
				"var_two": "с сачками",
				"var_three": "с ружьями",
				"var_four": "с лопатами",
				"difficulty_level": 10
			},				
			{
				"question_text": "Каким видом спорта серьезно увлекался французский лётчик Ролан Гаррос?",
				"question_correct_answer": "регби",
				"var_one": "пинг-понгом",
				"var_two": "поло",
				"var_three": "гольфом",
				"var_four": "регби",
				"difficulty_level": 11
			},				
			{
				"question_text": "Что такое лобогрейка?",
				"question_correct_answer": "жнейка",
				"var_one": "жнейка",
				"var_two": "шапка",
				"var_three": "болезнь",
				"var_four": "печка",
				"difficulty_level": 12
			},				
			{
				"question_text": "Где в Древней Греции можно было увидеть надпись: «Здесь живут мертвые и говорят немые»?",
				"question_correct_answer": "в библиотеках",
				"var_one": "на кладбищах",
				"var_two": "в больницах",
				"var_three": "в библиотеках",
				"var_four": "в тюрьмах",
				"difficulty_level": 13
			},				
			{
				"question_text": "Откуда обычно достаёт подарки Дед Мороз?",
				"question_correct_answer": "из мешка",
				"var_one": "из-за пазухи",
				"var_two": "из интернет-магазина",
				"var_three": "из мешка",
				"var_four": "из шкатулки",
				"difficulty_level": 1
			},				
			{
				"question_text": "Какой элемент есть в конструкции башенного крана?",
				"question_correct_answer": "стрела",
				"var_one": "стрела",
				"var_two": "копьё",
				"var_three": "дротик",
				"var_four": "бумеранг",
				"difficulty_level": 2
			},				
			{
				"question_text": "Как зовут сенбернара, героя популярного фильма?",
				"question_correct_answer": "Бетховен",
				"var_one": "Бах",
				"var_two": "Сальери",
				"var_three": "Моцарт",
				"var_four": "Бетховен",
				"difficulty_level": 3
			},				
			{
				"question_text": "Что писал Данте?",
				"question_correct_answer": "«Божественную комедию»",
				"var_one": "«Божественную трагедию»",
				"var_two": "«Божественную драму»",
				"var_three": "«Божественную комедию»",
				"var_four": "«Божественный фарс»",
				"difficulty_level": 4
			},	
			{
				"question_text": "Чем профессионально занимается провизор?",
				"question_correct_answer": "готовит лекарства",
				"var_one": "наблюдает за погодой",
				"var_two": "готовит лекарства",
				"var_three": "ухаживает за растениями",
				"var_four": "импровизирует",
				"difficulty_level": 5
			},	
			{
				"question_text": "Что на Руси называли «голова садовая»?",
				"question_correct_answer": "капусту",
				"var_one": "репу",
				"var_two": "свеклу",
				"var_three": "капусту",
				"var_four": "яблоко",
				"difficulty_level": 6
			},	
			{
				"question_text": "Что можно сделать, используя крупчатку?",
				"question_correct_answer": "замесить тесто",
				"var_one": "покрыть дорожку",
				"var_two": "слепить снежок",
				"var_three": "замесить тесто",
				"var_four": "оседлать лошадь",
				"difficulty_level": 7
			},	
			{
				"question_text": "В какой из этих городов Новый год приходит раньше?",
				"question_correct_answer": "Красноярск",
				"var_one": "Пермь",
				"var_two": "Красноярск",
				"var_three": "Омск",
				"var_four": "Новосибирск",
				"difficulty_level": 8
			},	
			{
				"question_text": "Какая героиня, как уверяют венецианцы, жила во дворце Контарини-Фазан?",
				"question_correct_answer": "Дездемона",
				"var_one": "Дездемона",
				"var_two": "Офелия",
				"var_three": "Джульетта",
				"var_four": "Катарина",
				"difficulty_level": 9
			},		
			{
				"question_text": "В какой стране был построен ледокол «Ермак»?",
				"question_correct_answer": "Великобритания",
				"var_one": "Россия",
				"var_two": "Германия",
				"var_three": "Нидерланды",
				"var_four": "Великобритания",
				"difficulty_level": 10
			},	
			{
				"question_text": "Какая из этих звезд принадлежит созвездию Кита?",
				"question_correct_answer": "Мира",
				"var_one": "Мира",
				"var_two": "Вега",
				"var_three": "Факт",
				"var_four": "Шеат",
				"difficulty_level": 11
			},	
			{
				"question_text": "Кто из этих английских королей не относится к Ланкастерскому Дому?",
				"question_correct_answer": "Генрих III",
				"var_one": "Генрих III",
				"var_two": "Генрих IV",
				"var_three": "Генрих V",
				"var_four": "Генрих VI",
				"difficulty_level": 12
			},	
			{
				"question_text": "Чему во времена Диккенса были равны 12 английских пенсов?",
				"question_correct_answer": "1 шиллингу",
				"var_one": "1 кроне",
				"var_two": "1 шиллингу",
				"var_three": "1 флорину",
				"var_four": "1 фунту стерлингов",
				"difficulty_level": 13
			},	
			{
				"question_text": "Кто является автором теории относительности?",
				"question_correct_answer": "Эйнштейн",
				"var_one": "Ньютон",
				"var_two": "Резерфорд",
				"var_three": "Максвелл",
				"var_four": "Эйнштейн",
				"difficulty_level": 1
			}																																																																																																																																													
	]
}